<?xml version="1.0"?>
<COLLADA xmlns="http://www.collada.org/2005/11/COLLADASchema" version="1.4.1">
  <asset>
    <contributor>
      <author>Assimp</author>
      <authoring_tool>Assimp Exporter</authoring_tool>
    </contributor>
    <created>2020-03-07T10:10:31</created>
    <modified>2020-03-07T10:10:31</modified>
    <unit name="meter" meter="1" />
    <up_axis>Y_UP</up_axis>
  </asset>
  <library_effects>
    <effect id="1001-fx" name="1001">
      <profile_COMMON>
        <technique sid="standard">
          <phong>
            <emission>
              <color sid="emission">0   0   0   1</color>
            </emission>
            <ambient>
              <color sid="ambient">0.8   0.8   0.8   1</color>
            </ambient>
            <diffuse>
              <color sid="diffuse">0.8   0.8   0.8   1</color>
            </diffuse>
            <specular>
              <color sid="specular">0.8   0.8   0.8   1</color>
            </specular>
            <shininess>
              <float sid="shininess">2000</float>
            </shininess>
            <transparency>
              <float sid="transparency">0</float>
            </transparency>
            <index_of_refraction>
              <float sid="index_of_refraction">1</float>
            </index_of_refraction>
          </phong>
        </technique>
      </profile_COMMON>
    </effect>
  </library_effects>
  <library_materials>
    <material id="1001" name="1001">
      <instance_effect url="#1001-fx"/>
    </material>
  </library_materials>
  <library_geometries>
    <geometry id="meshId0" name="meshId0_name" >
      <mesh>
        <source id="meshId0-positions" name="meshId0-positions">
          <float_array id="meshId0-positions-array" count="942"> -0.465105 -1 0 -0.559539 -0.974453 0 -0.484575 -0.974453 -0.279769 -0.402793 -1 -0.232552 0.402793 -1 -0.232552 0.484575 -0.974453 -0.279769 0.559539 -0.974453 0 0.465105 -1 0 0.232552 -1 0.402793 0.279769 -0.974453 0.484575 -0 -0.974453 0.559539 -0 -1 0.465105 -0.402793 -1 0.232552 -0.484575 -0.974453 0.27977 0.232552 -1 -0.402793 0.27977 -0.974453 -0.484575 -0.232552 -1 -0.402793 -0.279769 -0.974453 -0.484575 0 -0.974453 -0.559539 0 -1 -0.465105 0.402793 -1 0.232552 0.484575 -0.974453 0.27977 -0.232552 -1 0.402793 -0.27977 -0.974453 0.484575 0 -1 -0.465105 0 -0.974453 -0.559539 -0.209057 -0.901912 -0.362097 0 -0.901912 -0.418113 0.362097 -0.901912 0.209057 0.209057 -0.901912 0.362097 -0.209057 -0.901912 0.362097 -0.362097 -0.901912 0.209057 0 -0.901912 -0.418113 0.209057 -0.901912 -0.362097 -0.362097 -0.901912 -0.209057 0.418113 -0.901912 0 -0 -0.901912 0.418113 -0.418113 -0.901912 0 0.362097 -0.901912 -0.209057 0.169902 -0.894724 -0.299239 0.209057 -0.901912 -0.362097 0.362097 -0.901912 -0.209057 0.299239 -0.894724 -0.172766 -0.169902 -0.894724 -0.299239 -0.209057 -0.901912 -0.362097 0 -0.901912 -0.418113 0 -0.894724 -0.345531 0.299239 -0.894724 0.172766 0.362097 -0.901912 0.209057 0.209057 -0.901912 0.362097 0.169902 -0.894724 0.299239 -0.169902 -0.894724 0.299239 -0.209057 -0.901912 0.362097 -0.362097 -0.901912 0.209057 -0.299239 -0.894724 0.172766 -0.299239 -0.894724 -0.172766 -0.362097 -0.901912 -0.209057 0.345531 -0.894724 0 0.418113 -0.901912 0 -0 -0.894724 0.345531 -0 -0.901912 0.418113 -0.345531 -0.894724 0 -0.418113 -0.901912 0 -0.169902 -0.894724 0 0.169902 -0.894724 0 0 -0.894724 0 -0.324179 -0.666401 -0.561494 -0.561494 -0.666401 -0.324179 0.561494 -0.666401 0.324179 0.648357 -0.666401 0 -0.324179 -0.666401 0.561494 -0 -0.666401 0.648357 -0.648357 -0.666401 0 0.561494 -0.666401 -0.324178 0.324178 -0.666401 0.561494 -0.561494 -0.666401 0.324179 0.324179 -0.666401 -0.561494 0 -0.666401 -0.648357 0 -0.666401 -0.648357 0.682831 -0.645127 0 0.59135 -0.645127 -0.341415 -0 -0.645127 0.682831 0.341415 -0.645127 0.59135 -0.682831 -0.645127 0 -0.59135 -0.645127 0.341415 0.341415 -0.645127 -0.591348 -0 -0.645127 -0.682831 -0.341415 -0.645127 -0.59135 0.59135 -0.645127 0.341415 -0.341415 -0.645127 0.59135 -0 -0.645127 -0.682831 -0.59135 -0.645127 -0.341415 -0.614713 -0.600611 -0.354905 -0.709809 -0.600611 0 0.709809 -0.600611 0 0.614713 -0.600611 -0.354905 -0 -0.600611 0.709809 0.354905 -0.600611 0.614713 -0.614713 -0.600611 0.354905 0.354905 -0.600611 -0.614713 -0 -0.600611 -0.709809 -0.354905 -0.600611 -0.614713 0.614713 -0.600611 0.354905 -0.354905 -0.600611 0.614713 -0 -0.600611 -0.709809 -0.637686 -0.37909 -0.368168 -0.736337 -0.37909 0 0.736337 -0.37909 0 0.637686 -0.37909 -0.368168 -0 -0.37909 0.736337 0.368168 -0.37909 0.637686 -0.637686 -0.37909 0.368169 0.368169 -0.37909 -0.637686 -0 -0.37909 -0.736337 -0.368168 -0.37909 -0.637686 0.637686 -0.37909 0.368169 -0.368168 -0.37909 0.637686 -0 -0.37909 -0.736337 -0.361402 -0.346246 0.625965 -0 -0.346246 0.722803 -0.625965 -0.346246 -0.361402 -0.722803 -0.346246 0 0.722803 -0.346246 0 0.625965 -0.346246 -0.361402 0.361402 -0.346246 0.625965 -0.625965 -0.346246 0.361402 0.361402 -0.346246 -0.625965 -0 -0.346246 -0.722803 -0.361402 -0.346246 -0.625965 0.625965 -0.346246 0.361402 -0 -0.346246 -0.722803 -0.350717 -0.330904 0.607458 -0 -0.330904 0.701432 -0.607458 -0.330904 -0.350717 -0.701432 -0.330904 0 0.701432 -0.330904 0 0.607459 -0.330904 -0.350715 0.350717 -0.330904 0.607458 -0.607458 -0.330904 0.350717 0.350717 -0.330904 -0.607458 -0 -0.330904 -0.701432 -0.350717 -0.330904 -0.607458 0.607458 -0.330904 0.350717 -0 -0.330904 -0.701432 0.619087 -0.160952 0.35743 0.71486 -0.160952 0 -0.35743 -0.160952 0.619087 -0 -0.160952 0.71486 -0.619087 -0.160952 -0.35743 -0.71486 -0.160952 0 0.619087 -0.160952 -0.35743 0.35743 -0.160952 0.619087 -0.619087 -0.160952 0.35743 0.35743 -0.160952 -0.619087 -0 -0.160952 -0.71486 -0.35743 -0.160952 -0.619087 -0 -0.160952 -0.71486 0.457559 0.98649 -0.00717833 0.563313 0.962317 -0.00717833 0.476627 0.980001 -0.305344 0.387556 0.993314 -0.256715 -0.376932 0.991508 -0.222376 -0.482263 1 -0.285812 -0.554072 0.980431 -0.070903 -0.451487 0.983336 -0.0431373 -0.264912 0.992923 0.385334 -0.312128 0.983755 0.467117 -0.0136095 0.947165 0.558441 -0.0136095 0.972712 0.464007 0.402793 0.977503 0.232552 0.484575 0.951956 0.27977 -0.26438 0.996128 -0.364397 -0.276589 0.98084 -0.490007 0.221787 0.9761 -0.391364 0.277309 0.943739 -0.480871 -0.00173486 0.970695 -0.560451 -0.0152578 0.99395 -0.456293 -0.402793 0.977503 0.232552 -0.484575 0.951956 0.27977 0.232552 0.977503 0.402793 0.27977 0.951956 0.484575 -0.0152578 0.99395 -0.456293 -0.00173486 0.970695 -0.560451 0.209057 0.879415 -0.362097 0 0.879415 -0.418113 -0.362097 0.879415 0.209057 -0.209057 0.879415 0.362097 0.209057 0.879415 0.362097 0.362097 0.879415 0.209057 0 0.879415 -0.418113 -0.209057 0.879415 -0.362096 0.362097 0.879415 -0.209057 -0.418113 0.879415 0 0 0.879415 0.418113 0.418113 0.879415 0 -0.362097 0.879415 -0.209057 -0.169902 0.872227 -0.299239 -0.209057 0.879415 -0.362096 -0.362097 0.879415 -0.209057 -0.299239 0.872227 -0.172766 0.169902 0.872227 -0.299239 0.209057 0.879415 -0.362097 0 0.879415 -0.418113 0 0.872227 -0.345531 -0.299239 0.872227 0.172766 -0.362097 0.879415 0.209057 -0.209057 0.879415 0.362097 -0.169902 0.872227 0.299239 0.169902 0.872227 0.299239 0.209057 0.879415 0.362097 0.362097 0.879415 0.209057 0.299239 0.872227 0.172766 0.299239 0.872227 -0.172766 0.362097 0.879415 -0.209057 -0.345531 0.872227 0 -0.418113 0.879415 0 0 0.872227 0.345531 0 0.879415 0.418113 0.345531 0.872227 0 0.418113 0.879415 0 0.169902 0.872227 0 -0.169902 0.872227 0 0 0.872227 0 0.324179 0.643906 -0.561494 0.561494 0.643906 -0.324179 -0.561494 0.643906 0.324179 -0.648357 0.643906 0 0.324179 0.643904 0.561494 0 0.643904 0.648357 0.648357 0.643906 0 -0.561494 0.643906 -0.324178 -0.324178 0.643904 0.561494 0.561494 0.643904 0.324179 -0.324179 0.643906 -0.561494 0 0.643906 -0.648357 0 0.643906 -0.648357 -0.682831 0.62673 0 -0.59135 0.62673 -0.341415 0 0.626729 0.682831 -0.341415 0.626729 0.59135 0.682831 0.62673 0 0.59135 0.626729 0.341415 -0.341415 0.62673 -0.591348 0 0.62673 -0.682831 0.341415 0.62673 -0.59135 -0.59135 0.62673 0.341415 0.341415 0.626729 0.59135 0 0.62673 -0.682831 0.59135 0.62673 -0.341415 0.614713 0.583851 -0.354905 0.709809 0.583851 0 -0.709809 0.583851 0 -0.614713 0.583851 -0.354905 0 0.583851 0.709809 -0.354905 0.583851 0.614713 0.614713 0.583851 0.354905 -0.354905 0.583851 -0.614713 0 0.583851 -0.709809 0.354905 0.583851 -0.614713 -0.614713 0.583851 0.354905 0.354905 0.583851 0.614713 0 0.583851 -0.709809 0.637686 0.356593 -0.368169 0.736337 0.356593 -0 -0.736337 0.356593 0 -0.637686 0.356593 -0.368168 0 0.356593 0.736337 -0.368168 0.356593 0.637686 0.637686 0.356593 0.368168 -0.368169 0.356593 -0.637686 0 0.356593 -0.736337 0.368168 0.356593 -0.637686 -0.637686 0.356593 0.368169 0.368169 0.356593 0.637686 0 0.356593 -0.736337 0.361402 0.323751 0.625965 0 0.323751 0.722803 0.625965 0.323751 -0.361402 0.722801 0.323751 -0 -0.722803 0.323751 0 -0.625965 0.323751 -0.361402 -0.361402 0.323751 0.625965 0.625965 0.323751 0.361402 -0.361402 0.323751 -0.625965 0 0.323751 -0.722803 0.361402 0.323751 -0.625965 -0.625965 0.323751 0.361402 0 0.323751 -0.722803 0.350717 0.30431 0.607458 0 0.30431 0.701432 0.607458 0.30431 -0.350717 0.701432 0.30431 -0 -0.701432 0.30431 0 -0.607459 0.30431 -0.350717 -0.350717 0.30431 0.607458 0.607458 0.30431 0.350717 -0.350717 0.30431 -0.607458 0 0.30431 -0.701432 0.350717 0.30431 -0.607458 -0.607458 0.30431 0.350717 0 0.30431 -0.701432 -0.619087 0.138457 0.35743 -0.71486 0.138457 0 0.35743 0.138457 0.619087 0 0.138457 0.71486 0.619087 0.138457 -0.35743 0.71486 0.138457 -0 -0.619087 0.138457 -0.35743 -0.35743 0.138457 0.619087 0.619087 0.138457 0.35743 -0.35743 0.138457 -0.619087 -0 0.138457 -0.71486 0.35743 0.138457 -0.619087 -0 0.138457 -0.71486 </float_array>
          <technique_common>
            <accessor count="314" offset="0" source="#meshId0-positions-array" stride="3">
              <param name="X" type="float" />
              <param name="Y" type="float" />
              <param name="Z" type="float" />
            </accessor>
          </technique_common>
        </source>
        <source id="meshId0-normals" name="meshId0-normals">
          <float_array id="meshId0-normals-array" count="942"> 0.3214 -0.9469 0 -0.7383 -0.6745 0 -0.6394 -0.6745 -0.3691 0.2783 -0.9469 0.1607 -0.2783 -0.9469 0.1607 0.6394 -0.6745 -0.3691 0.7383 -0.6745 0 -0.3214 -0.9469 0 -0.1607 -0.9469 -0.2783 0.3691 -0.6745 0.6394 0 -0.6745 0.7383 0 -0.9469 -0.3214 0.2783 -0.9469 -0.1607 -0.6394 -0.6745 0.3691 -0.1607 -0.9469 0.2783 0.3691 -0.6745 -0.6394 0.1607 -0.9469 0.2783 -0.3691 -0.6745 -0.6394 0 -0.6745 -0.7383 0 -0.9469 0.3214 -0.2783 -0.9469 -0.1607 0.6394 -0.6745 0.3691 0.1607 -0.9469 -0.2783 -0.3691 -0.6745 0.6394 0 -0.9469 0.3214 0 -0.6745 -0.7383 0.3119 -0.7818 0.5398 0 -0.7817 0.6236 -0.54 -0.7818 -0.3118 -0.3119 -0.7818 -0.5398 0.3119 -0.7818 -0.5398 0.54 -0.7818 -0.3118 0 -0.7817 0.6236 -0.3119 -0.7818 0.5398 0.54 -0.7818 0.3118 -0.6238 -0.7816 0 0 -0.7817 -0.6236 0.6238 -0.7816 0 -0.54 -0.7818 0.3118 -0.028 -0.9984 0.0494 -0.3119 -0.7818 0.5398 -0.54 -0.7818 0.3118 -0.0495 -0.9984 0.0287 0.028 -0.9984 0.0494 0.3119 -0.7818 0.5398 0 -0.7817 0.6236 0 -0.9984 0.0573 -0.0495 -0.9984 -0.0287 -0.54 -0.7818 -0.3118 -0.3119 -0.7818 -0.5398 -0.028 -0.9984 -0.0494 0.028 -0.9984 -0.0494 0.3119 -0.7818 -0.5398 0.54 -0.7818 -0.3118 0.0495 -0.9984 -0.0287 0.0495 -0.9984 0.0287 0.54 -0.7818 0.3118 -0.0575 -0.9983 0 -0.6238 -0.7816 0 0 -0.9984 -0.0573 0 -0.7817 -0.6236 0.0575 -0.9983 0 0.6238 -0.7816 0 0 -1 0 0 -1 0 0 -1 0 -0.3862 -0.635 -0.669 -0.669 -0.635 -0.3862 0.669 -0.635 0.3862 0.7725 -0.635 0 -0.3862 -0.635 0.669 0 -0.635 0.7725 -0.7725 -0.635 0 0.669 -0.635 -0.3862 0.3862 -0.635 0.669 -0.669 -0.635 0.3862 0.3862 -0.635 -0.669 0 -0.635 -0.7725 0 -0.635 -0.7725 0.7282 -0.6854 0 0.6306 -0.6854 -0.3641 0 -0.6854 0.7282 0.3641 -0.6854 0.6306 -0.7282 -0.6854 0 -0.6306 -0.6854 0.3641 0.3641 -0.6854 -0.6306 0 -0.6854 -0.7282 -0.3641 -0.6854 -0.6306 0.6306 -0.6854 0.3641 -0.3641 -0.6854 0.6306 0 -0.6854 -0.7282 -0.6306 -0.6854 -0.3641 -0.8217 -0.3157 -0.4744 -0.9489 -0.3157 0 0.9489 -0.3157 0 0.8217 -0.3157 -0.4744 0 -0.3157 0.9489 0.4744 -0.3157 0.8217 -0.8217 -0.3157 0.4744 0.4744 -0.3157 -0.8217 0 -0.3157 -0.9489 -0.4744 -0.3157 -0.8217 0.8217 -0.3157 0.4744 -0.4744 -0.3157 0.8217 0 -0.3157 -0.9489 -0.8586 0.1302 -0.4957 -0.9915 0.1302 0 0.9915 0.1302 0 0.8586 0.1302 -0.4957 0 0.1302 0.9915 0.4957 0.1302 0.8586 -0.8586 0.1302 0.4957 0.4957 0.1302 -0.8586 0 0.1302 -0.9915 -0.4957 0.1302 -0.8586 0.8586 0.1302 0.4957 -0.4957 0.1302 0.8586 0 0.1302 -0.9915 -0.4002 0.5993 0.6932 0 0.5993 0.8005 -0.6932 0.5993 -0.4002 -0.8005 0.5993 0 0.8005 0.5993 0 0.6932 0.5993 -0.4002 0.4002 0.5993 0.6932 -0.6932 0.5993 0.4002 0.4002 0.5993 -0.6932 0 0.5993 -0.8005 -0.4002 0.5993 -0.6932 0.6932 0.5993 0.4002 0 0.5993 -0.8005 -0.4451 0.4555 0.771 0 0.4555 0.8902 -0.771 0.4555 -0.4451 -0.8902 0.4555 0 0.8902 0.4555 0 0.771 0.4555 -0.4451 0.4451 0.4555 0.771 -0.771 0.4555 0.4451 0.4451 0.4555 -0.771 0 0.4555 -0.8902 -0.4451 0.4555 -0.771 0.771 0.4555 0.4451 0 0.4555 -0.8902 0.8654 -0.0392 0.4996 0.9992 -0.0392 0 -0.4996 -0.0392 0.8654 0 -0.0392 0.9992 -0.8654 -0.0392 -0.4996 -0.9992 -0.0392 0 0.8654 -0.0392 -0.4996 0.4996 -0.0392 0.8654 -0.8654 -0.0392 0.4996 0.4996 -0.0392 -0.8654 0 -0.0392 -0.9992 -0.4996 -0.0392 -0.8654 0 -0.0392 -0.9992 -0.3878 0.9204 0.0499 0.732 0.6811 0.0167 0.5923 0.7045 -0.3908 -0.3315 0.9263 0.1789 0.481 0.8236 0.3005 -0.5627 0.7582 -0.3293 -0.6864 0.7272 -0.0032 0.465 0.8769 0.1214 0.207 0.9278 -0.3104 -0.3692 0.7191 0.5886 0.0093 0.6712 0.7412 0.0581 0.9362 -0.3466 -0.2971 0.9436 -0.1458 0.6359 0.6726 0.3783 0.3158 0.8701 0.3782 -0.3307 0.7045 -0.6279 -0.2004 0.9164 0.3464 0.3601 0.6572 -0.662 0.0379 0.6926 -0.7202 0.073 0.913 0.4013 0.326 0.9248 -0.1957 -0.6523 0.6767 0.3415 -0.1663 0.9473 -0.2737 0.3616 0.6773 0.6407 0.073 0.913 0.4013 0.0379 0.6926 -0.7202 -0.3211 0.7481 0.5806 0.0067 0.7279 0.6856 0.5664 0.767 -0.3015 0.305 0.776 -0.5521 -0.3113 0.7802 -0.5425 -0.5542 0.7731 -0.3085 0.0067 0.7279 0.6856 0.3421 0.7208 0.6028 -0.5734 0.7541 0.3201 0.6728 0.7398 0.0009 0.0017 0.7747 -0.6322 -0.6547 0.7559 0.0072 0.5929 0.7268 0.3466 0.028 0.9984 0.0494 0.3421 0.7208 0.6028 0.5929 0.7268 0.3466 0.0495 0.9984 0.0287 -0.028 0.9984 0.0494 -0.3211 0.7481 0.5806 0.0067 0.7279 0.6856 0 0.9984 0.0573 0.0495 0.9984 -0.0287 0.5664 0.767 -0.3015 0.305 0.776 -0.5521 0.028 0.9984 -0.0494 -0.028 0.9984 -0.0494 -0.3113 0.7802 -0.5425 -0.5542 0.7731 -0.3085 -0.0495 0.9984 -0.0287 -0.0495 0.9984 0.0287 -0.5734 0.7541 0.3201 0.0575 0.9983 0 0.6728 0.7398 0.0009 0 0.9984 -0.0573 0.0017 0.7747 -0.6322 -0.0575 0.9983 0 -0.6547 0.7559 0.0072 0 1 0 0 1 0 0 1 0 0.3665 0.6701 -0.6454 0.6424 0.6678 -0.376 -0.6462 0.673 0.3597 -0.7411 0.6713 0.006 0.3664 0.6765 0.6388 0.0007 0.6759 0.737 0.7424 0.6699 0.0025 -0.6485 0.6597 -0.3797 -0.3704 0.67 0.6433 0.6394 0.6734 0.371 -0.3715 0.6637 -0.6493 0.0067 0.6704 -0.7419 0.0067 0.6704 -0.7419 -0.6943 0.7197 0 -0.6013 0.7197 -0.3471 0 0.7197 0.6943 -0.3471 0.7197 0.6013 0.6943 0.7197 0 0.6013 0.7197 0.3471 -0.3471 0.7197 -0.6013 0 0.7197 -0.6943 0.3471 0.7197 -0.6013 -0.6013 0.7197 0.3471 0.3471 0.7197 0.6013 0 0.7197 -0.6943 0.6013 0.7197 -0.3471 0.82 0.3215 -0.4734 0.9469 0.3215 0 -0.9469 0.3215 0 -0.82 0.3215 -0.4734 0 0.3215 0.9469 -0.4734 0.3215 0.82 0.82 0.3215 0.4734 -0.4734 0.3215 -0.82 0 0.3215 -0.9469 0.4734 0.3215 -0.82 -0.82 0.3215 0.4734 0.4734 0.3215 0.82 0 0.3215 -0.9469 0.8585 -0.1316 -0.4956 0.9913 -0.1316 0 -0.9913 -0.1316 0 -0.8585 -0.1316 -0.4956 0 -0.1316 0.9913 -0.4956 -0.1316 0.8585 0.8585 -0.1316 0.4956 -0.4956 -0.1316 -0.8585 0 -0.1316 -0.9913 0.4956 -0.1316 -0.8585 -0.8585 -0.1316 0.4956 0.4956 -0.1316 0.8585 0 -0.1316 -0.9913 0.4149 -0.5579 0.7187 0 -0.5579 0.8299 0.7187 -0.5579 -0.415 0.8299 -0.5579 0 -0.8299 -0.5579 0 -0.7187 -0.5579 -0.415 -0.4149 -0.5579 0.7187 0.7187 -0.5579 0.415 -0.415 -0.5579 -0.7187 0 -0.5579 -0.8299 0.415 -0.5579 -0.7187 -0.7187 -0.5579 0.415 0 -0.5579 -0.8299 0.4594 -0.3945 0.7957 0 -0.3945 0.9189 0.7957 -0.3945 -0.4594 0.9189 -0.3945 0 -0.9189 -0.3945 0 -0.7957 -0.3945 -0.4594 -0.4594 -0.3945 0.7957 0.7957 -0.3945 0.4594 -0.4594 -0.3945 -0.7957 0 -0.3945 -0.9189 0.4594 -0.3945 -0.7957 -0.7957 -0.3945 0.4594 0 -0.3945 -0.9189 -0.8653 0.0401 0.4996 -0.9992 0.0401 0 0.4996 0.0401 0.8653 0 0.0401 0.9992 0.8653 0.0401 -0.4996 0.9992 0.0401 0 -0.8653 0.0401 -0.4996 -0.4996 0.0401 0.8653 0.8653 0.0401 0.4996 -0.4996 0.0401 -0.8653 0 0.0401 -0.9992 0.4996 0.0401 -0.8653 0 0.0401 -0.9992 </float_array>
          <technique_common>
            <accessor count="314" offset="0" source="#meshId0-normals-array" stride="3">
              <param name="X" type="float" />
              <param name="Y" type="float" />
              <param name="Z" type="float" />
            </accessor>
          </technique_common>
        </source>
        <source id="meshId0-tangents" name="meshId0-tangents">
          <float_array id="meshId0-tangents-array" count="942"> -0.946888 -0.3214 -0.0102505 -0.674471 0.738268 0.00703222 -0.587631 0.738262 -0.331148 -0.814912 -0.32137 -0.482327 0.825164 -0.321369 -0.464571 0.5806 0.738262 -0.343327 0.674471 0.738268 -0.00703219 0.946888 -0.3214 0.0102511 0.464571 -0.321369 0.825164 0.343327 0.738262 0.5806 0.00703219 0.738268 0.674471 -0.0102511 -0.3214 0.946888 -0.825159 -0.321369 0.464579 -0.580597 0.738262 0.343333 0.482335 -0.32137 -0.814908 0.331152 0.738262 -0.587628 -0.464571 -0.321369 -0.825164 -0.343329 0.738262 -0.580599 -0.0543532 0.737195 -0.673491 -0.0309707 -0.321263 -0.946484 0.814908 -0.32137 0.482334 0.587628 0.738262 0.331152 -0.482334 -0.32137 0.814908 -0.331152 0.738262 0.587628 0.0518689 -0.320984 -0.945663 0.039743 0.737703 -0.673955 -0.365994 -0.623257 -0.691086 0 -0.623647 -0.781706 0.662425 -0.623276 0.415596 0.365994 -0.623257 0.691086 -0.415678 -0.623263 0.662387 -0.691115 -0.623276 0.365907 0.0575126 -0.622616 -0.780412 0.415678 -0.623263 -0.662387 -0.662425 -0.623276 -0.415596 0.781276 -0.623526 0.0286896 -0.0286893 -0.623391 0.781384 -0.781276 -0.623526 -0.0286896 0.691115 -0.623276 -0.365907 -0.706405 0.0547279 0.705689 -0.636035 0.593862 0.492734 -0.493152 0.594099 0.63549 -0.705433 0.0552873 0.706617 -0.70747 0.0151202 0.706582 -0.759241 0.136447 0.636345 -0.766194 0.400722 0.502362 -0.7075 0.0404929 0.705552 -0.706459 0.014685 0.707602 -0.636357 0.13677 0.759173 -0.75924 -0.136448 0.636346 -0.707469 -0.0151202 0.706583 -0.706407 -0.0547279 0.705687 -0.636037 -0.593861 0.492732 -0.493152 -0.594099 0.63549 -0.705439 -0.0552874 0.706611 -0.706455 -0.0146848 0.707605 -0.636358 -0.136772 0.759172 -0.705445 0.0406322 0.707599 -0.502542 0.401095 0.765882 -0.707497 -0.0404931 0.705556 -0.76619 -0.400725 0.502366 -0.705461 -0.0406331 0.707583 -0.50256 -0.40111 0.765862 -0.707074 0 0.70714 -0.707074 0 0.70714 -0.707041 0 0.707172 -0.325939 0.772459 -0.545042 -0.554807 0.772459 -0.309024 0.554808 0.772459 0.309023 0.634976 0.77247 -0.00976603 -0.309023 0.772459 0.554808 0.00976603 0.77247 0.634976 -0.634976 0.77247 0.00976599 0.545033 0.772459 -0.325954 0.325954 0.772459 0.545033 -0.545043 0.772459 0.325938 0.309032 0.772459 -0.554802 -0.0349748 0.772035 -0.634617 0.0154822 0.772415 -0.63493 0.685382 0.728181 -0.00179441 0.592672 0.728165 -0.344261 0.00179441 0.728181 0.685382 0.344261 0.728165 0.592672 -0.685382 0.728181 0.00179379 -0.592679 0.728165 0.344248 0.34114 0.728165 -0.594474 -0.015712 0.728092 -0.685299 -0.344248 0.728165 -0.592679 0.594474 0.728165 0.34114 -0.34114 0.728165 0.594474 0.0120989 0.728129 -0.685333 -0.594474 0.728165 -0.34114 -0.273746 0.948854 -0.157285 -0.315688 0.948863 0.000664999 0.315688 0.948863 -0.000664366 0.273081 0.948854 -0.158436 0.000665016 0.948863 0.315688 0.158436 0.948854 0.273081 -0.27308 0.948854 0.158438 0.157281 0.948854 -0.273748 -0.0121081 0.948793 -0.315665 -0.158436 0.948854 -0.273081 0.273745 0.948854 0.157287 -0.157285 0.948854 0.273746 0.0107649 0.948808 -0.31567 0.108597 0.991452 0.0723128 0.130194 0.991454 0.00833376 -0.130194 0.991454 -0.00833379 -0.116931 0.991452 0.0578783 0.0083331 0.991454 -0.130194 -0.0578783 0.991452 -0.116931 0.116923 0.991452 -0.0578924 -0.072327 0.991452 0.108589 -0.0108202 0.99143 0.130191 0.057878 0.991452 0.116931 -0.108589 0.991452 -0.072327 0.0723125 0.991452 -0.108598 -0.00584663 0.991471 0.130196 0.301076 0.800489 -0.518238 0.00163843 0.800515 -0.599311 0.518238 0.800489 0.301076 0.599311 0.800515 0.00163768 -0.599311 0.800515 -0.00163837 -0.519857 0.800489 0.298271 -0.298238 0.800489 -0.519876 0.519865 0.800489 -0.298257 -0.301094 0.800489 0.518227 0.00584347 0.800502 0.599302 0.298238 0.800489 0.519876 -0.518227 0.800489 -0.301095 -0.00913052 0.800482 0.599287 0.221565 0.890217 -0.398023 -0.00712101 0.890206 -0.455503 0.398023 0.890217 0.221565 0.455503 0.890206 -0.00712108 -0.455503 0.890206 0.00712155 -0.39088 0.890217 0.233938 -0.2339 0.890217 -0.390902 0.390901 0.890217 -0.2339 -0.221566 0.890217 0.398022 0.00891508 0.890193 0.455496 0.2339 0.890217 0.390902 -0.398023 0.890217 -0.221565 0.00533032 0.890216 0.455508 0.0353593 0.999227 0.0171533 0.039201 0.999227 -0.00282304 -0.0171533 0.999227 0.0353593 0.00282235 0.999227 0.039201 -0.0353593 0.999227 -0.0171533 -0.039201 0.999227 0.00282235 0.032534 0.999227 -0.0220474 0.0220426 0.999227 0.0325367 -0.0325367 0.999227 0.0220426 0.0171533 0.999227 -0.0353593 -0.00564494 0.999215 -0.0392005 -0.0220426 0.999227 -0.0325367 0 0.999231 -0.0392012 -0.919598 -0.390019 0.0471647 -0.680575 0.732131 -0.0283161 -0.639759 0.706162 0.303388 -0.734166 -0.372393 0.567735 0.714963 -0.566875 0.409244 0.651392 0.651982 0.388083 0.726103 0.685593 0.0523163 0.812473 -0.477202 0.334911 0.577985 -0.371956 -0.726348 0.320893 0.693093 -0.645484 -0.0166519 0.741243 -0.67103 0.0772107 -0.350364 -0.933426 -0.824126 -0.330554 -0.459946 -0.577163 0.739966 -0.345446 0.416068 -0.48528 0.769019 0.164245 0.698172 0.696836 -0.436925 -0.400077 0.805627 -0.352044 0.752951 0.555994 -0.121837 0.718607 0.68466 -0.06148 -0.3975 0.91554 0.802199 -0.380194 -0.460357 0.585068 0.735927 -0.340745 -0.47702 -0.320225 -0.818479 -0.333553 0.735703 -0.589478 0.021199 -0.403718 0.914638 -0.0213983 0.72119 0.692407 -0.302102 -0.662073 0.685852 0.145536 -0.679076 0.719497 0.6742 -0.641635 -0.365731 0.603795 -0.605869 -0.51803 -0.414132 -0.625241 -0.661489 -0.686968 -0.634101 -0.354952 0.239161 -0.666938 0.705688 0.658735 -0.641478 0.393159 -0.512141 -0.634981 0.578369 0.69433 -0.631892 0.344412 0.0986431 -0.629356 -0.770831 -0.749964 -0.650643 0.119237 0.593013 -0.685384 0.422593 0.706413 -0.0547278 0.705681 0.624252 -0.653818 0.427589 0.437052 -0.651934 0.619651 0.705439 -0.0552874 0.706611 0.707469 -0.0151202 0.706583 0.770896 -0.1496 0.619144 0.782953 -0.430302 0.449248 0.707498 -0.0404931 0.705555 0.706459 -0.014685 0.707602 0.620033 -0.155587 0.768994 0.764112 0.146621 0.6282 0.707469 0.0151202 0.706583 0.706406 0.0547279 0.705688 0.63656 0.595062 0.490604 0.481868 0.600182 0.638424 0.705434 0.0552873 0.706616 0.706452 0.0146845 0.707608 0.622656 0.147213 0.768523 0.705461 -0.0406331 0.707583 0.462825 -0.421835 0.779646 0.707496 0.0404931 0.705556 0.768775 0.403271 0.496344 0.705446 0.0406322 0.707598 0.480713 0.409007 0.775647 0.707074 0 0.70714 0.707076 0 0.707138 0.707041 0 0.707172 -0.351094 0.742038 0.571062 -0.597889 0.743631 0.299236 0.576768 0.739413 -0.347284 0.669583 0.739796 -0.066034 -0.333787 0.736429 -0.588438 -0.0193627 0.736867 -0.67576 -0.669782 0.742338 -0.0180491 0.571175 0.751504 0.330154 0.309542 0.742041 -0.594609 -0.578221 0.739234 -0.345244 0.328188 0.748027 0.576844 -0.038627 0.741575 0.669757 0.0128062 0.741837 0.670458 0.719692 0.694292 0.00174969 0.622396 0.694287 0.361371 0.00174972 0.694292 -0.719692 0.361371 0.694287 -0.622396 -0.719692 0.694292 -0.001749 -0.622404 0.694287 -0.361358 0.358327 0.694287 0.624153 -0.0156131 0.694208 0.719605 -0.361358 0.694287 0.622404 0.624153 0.694287 -0.358327 -0.358327 0.694287 -0.624153 0.0120873 0.694242 0.71964 -0.624153 0.694287 0.358327 -0.278779 0.946902 0.160181 -0.321503 0.946908 -0.000675674 0.321503 0.946908 0.000675713 0.278104 0.946902 0.16135 0.000675658 0.946908 -0.321503 0.161349 0.946902 -0.278105 -0.278105 0.946902 -0.161349 0.160175 0.946902 0.278783 -0.0120994 0.946839 0.321479 -0.161349 0.946902 0.278105 0.278779 0.946902 -0.160181 -0.160181 0.946902 -0.278779 0.0107329 0.946854 0.321484 0.109808 0.991268 -0.0730039 0.131596 0.991269 -0.00831049 -0.131596 0.991269 0.00831049 -0.118126 0.991268 -0.0585952 0.00831051 0.991269 0.131596 -0.0585952 0.991268 0.118126 0.118126 0.991268 0.0585948 -0.0730039 0.991268 -0.109808 -0.0107735 0.991245 -0.131593 0.0585952 0.991268 -0.118126 -0.109808 0.991268 0.0730039 0.0730039 0.991268 0.109808 -0.00584675 0.991286 -0.131598 0.28042 0.829893 0.482331 0.00168094 0.829904 0.557903 0.482311 0.829908 -0.280408 0.557903 0.829904 -0.00168091 -0.557903 0.829905 0.00168089 -0.483996 0.829908 -0.277489 -0.277489 0.829893 0.484022 0.484002 0.829908 0.277478 -0.280408 0.829908 -0.482311 0.00584589 0.829891 -0.557894 0.277478 0.829908 -0.484002 -0.48231 0.829908 0.280408 -0.00921659 0.82987 -0.55788 0.191024 0.918857 0.34527 -0.00719547 0.918873 0.394488 0.34527 0.918857 -0.191024 0.394488 0.918873 0.00719552 -0.394488 0.918873 -0.00719546 -0.338067 0.918857 -0.2035 -0.203488 0.918857 0.338074 0.338074 0.918857 0.203488 -0.191025 0.918857 -0.34527 0.00902025 0.918859 -0.394482 0.203488 0.918857 -0.338074 -0.345271 0.918857 0.191024 0.00537373 0.918883 -0.394493 0.0361449 0.999192 -0.0175968 0.0400997 0.999192 0.00283104 -0.0175968 0.999192 -0.0361449 0.00283104 0.999192 -0.0400997 -0.0361449 0.999192 0.0175968 -0.0400997 0.999192 -0.00283104 0.0333123 0.999192 0.0225028 0.022501 0.999192 -0.0333134 -0.0333134 0.999192 -0.022501 0.0175968 0.999192 0.0361449 -0.00566233 0.99918 0.0400992 -0.022501 0.999192 0.0333134 0 0.999196 0.0400998 </float_array>
          <technique_common>
            <accessor count="314" offset="0" source="#meshId0-tangents-array" stride="3">
              <param name="X" type="float" />
              <param name="Y" type="float" />
              <param name="Z" type="float" />
            </accessor>
          </technique_common>
        </source>
        <source id="meshId0-bitangents" name="meshId0-bitangents">
          <float_array id="meshId0-bitangents-array" count="942"> 0.00970619 0.00329451 -0.999906 -0.00474323 0.00519189 -0.999994 0.495852 0.0051585 -0.868402 0.508359 0.00327508 -0.861078 0.491547 0.00331365 0.870785 0.504066 0.00522378 0.863659 0.00474321 0.00519187 0.999994 -0.00970675 0.0032947 0.999906 -0.870785 0.00331366 0.491547 -0.863659 0.0052238 0.504066 -0.999994 0.00519187 0.00474321 -0.999906 0.0032947 -0.00970675 -0.491554 0.00331071 -0.87078 -0.50407 0.00522885 -0.863657 0.861073 0.003278 0.508367 0.8684 0.00515473 0.495855 0.870785 0.00331363 -0.491547 0.863658 0.0052256 -0.504068 0.99854 0.0401289 -0.0366612 0.999479 -0.00995397 -0.0293261 -0.508367 0.00327797 0.861073 -0.495855 0.00515477 0.8684 -0.861074 0.00327794 -0.508367 -0.8684 0.00515471 -0.495855 0.998613 0.0166707 0.0491146 0.999228 -0.0293422 0.0268066 0.876725 0.0179863 -0.480528 0.999966 0 0 -0.519251 0.017878 0.854453 -0.876725 0.0179864 0.480527 -0.854291 0.0177844 -0.519372 -0.480403 0.0178999 -0.876882 0.998311 0.0358648 0.0449576 0.854291 0.0177844 0.519372 0.519251 0.017878 -0.854453 -0.0224238 0.0178965 0.999601 -0.999554 0.0178907 -0.0224264 0.0224238 0.0178965 -0.999601 0.480403 0.0179 0.876882 -0.707263 -0.0151371 -0.706807 -0.705786 -0.189648 -0.682478 -0.682066 0.1894 -0.706359 -0.707073 0.0147316 -0.707041 -0.706199 -0.0547333 -0.705914 -0.571148 -0.608315 -0.551017 -0.642587 -0.477799 -0.598934 -0.706743 -0.0405398 -0.706368 -0.706048 0.0553017 -0.706055 -0.550877 0.60837 -0.571359 -0.57115 0.608314 -0.551015 -0.706199 0.0547333 -0.705914 -0.707261 0.0151373 -0.706809 -0.705784 0.18965 -0.682479 -0.682066 -0.1894 -0.706359 -0.707067 -0.0147312 -0.707047 -0.706052 -0.0553017 -0.706052 -0.550875 -0.608369 -0.571361 -0.706396 0.0406869 -0.706582 -0.598613 0.477757 -0.64299 -0.706747 0.0405396 -0.706365 -0.642592 0.477796 -0.598931 -0.706381 -0.040686 -0.706598 -0.598598 -0.477745 -0.643013 -0.70714 -0 -0.707074 -0.70714 -0 -0.707074 -0.707172 -0 -0.707041 0.862877 0.00755772 -0.505295 0.494554 0.00752924 -0.869078 -0.494553 0.00753061 0.869078 0.00620143 0.00754426 0.999943 -0.869078 0.00753047 -0.494553 -0.999943 0.00754426 0.00620143 -0.0062014 0.00754422 -0.999943 0.505305 0.00757155 0.862871 -0.862871 0.00757155 0.505305 -0.505294 0.00755681 -0.862877 0.869075 0.0075219 0.494559 0.999379 0.027018 -0.022209 0.999871 -0.01196 0.00983118 0.00122989 0.00130669 1.00002 0.501081 0.00129896 0.865398 -1.00002 0.00130669 0.00122989 -0.865398 0.00129937 0.501082 -0.00122946 0.00130624 -1.00002 -0.501073 0.00128856 -0.865403 0.866633 0.00132471 0.498943 0.999901 0.0114415 -0.010769 0.865403 0.00128856 -0.501073 -0.498942 0.00132492 0.866633 -0.866633 0.00132494 -0.498942 0.999951 -0.0088104 0.00829256 0.498942 0.00132492 -0.866633 0.499791 0.000624105 -0.866095 -0.00020994 0.000631017 -1.00004 0.00020974 0.000630417 1.00004 0.500155 0.000637457 0.865885 -1.00004 0.000631034 0.000209946 -0.865885 0.000636905 0.500155 -0.500156 0.000639513 -0.865885 0.866096 0.000628203 0.49979 0.999965 0.0114894 -0.00382254 0.865885 0.000636891 -0.500155 -0.499792 0.000621453 0.866095 -0.866095 0.000624374 -0.499791 0.999981 -0.0102148 0.00339848 0.500878 0.00825603 -0.8654 0.00108506 0.00826292 -0.999977 -0.00108506 0.00826295 0.999977 0.498999 0.00826835 0.866485 -0.999977 0.00826227 -0.00108497 -0.866485 0.00826832 0.498999 -0.499 0.00825224 -0.866484 0.865399 0.00827236 0.50088 0.999954 0.0107282 0.00140879 0.866485 0.00826864 -0.498999 -0.50088 0.00827235 0.865399 -0.8654 0.00825568 -0.500878 0.999995 0.00579693 0.000761231 -0.865479 0.00130697 -0.50079 -0.999979 0.00131156 -0.000981909 0.500791 0.00130701 -0.865479 0.000981462 0.00131096 -0.999979 -0.000981874 0.00131151 0.999979 0.49911 0.00128511 0.866449 -0.866461 0.00131586 0.49909 -0.499101 0.00129816 -0.866454 0.865473 0.00132367 0.500801 0.999963 -0.0046777 -0.00350199 0.866461 0.00131561 -0.49909 -0.500802 0.00132442 0.865473 0.999939 0.00730898 0.00547192 -0.867657 -0.00633337 -0.497159 -0.999943 -0.00633912 0.00324362 0.497158 -0.00633347 -0.867657 -0.00324365 -0.00633918 -0.999943 0.00324387 -0.0063396 0.999943 0.502794 -0.00638577 0.864403 -0.864413 -0.006347 0.502777 -0.502777 -0.00634697 -0.864413 0.867657 -0.00633258 0.497159 0.999928 -0.0079362 -0.00406082 0.864413 -0.00634699 -0.502777 -0.497158 -0.00633347 0.867657 0.999954 -0.00474505 -0.00242796 -0.499886 0.00282102 0.866118 0.000110663 0.00282078 0.999965 -0.866118 0.00282102 -0.499886 -0.999965 0.00282009 0.000110636 0.499886 0.00282102 -0.866118 -0.000110636 0.00282009 -0.999965 0.500078 0.00282582 0.866007 -0.866007 0.00282034 0.500078 -0.500078 0.00282034 -0.866007 0.866117 0.00282102 0.499886 0.999953 0.00564043 -0.000221282 0.866007 0.00282034 -0.500078 0.999969 0 0 0.0628723 -0.0275975 0.997647 -0.0315127 0.00936177 0.99946 0.489705 0.0703211 0.86897 0.592514 0.0568619 0.803506 0.507399 0.0180001 -0.86151 0.508942 0.00387108 -0.860755 0.0402383 0.0335864 -0.998613 0.351616 -0.0570995 -0.934357 -0.789361 -0.0290527 -0.61325 -0.872122 -0.0494354 -0.486644 -0.999805 -0.00610184 0.0180703 -0.995309 0.0274708 -0.0926408 -0.482199 -0.0164923 0.875853 -0.512276 0.00132875 0.858744 0.852656 -0.0854993 -0.515272 0.929303 0.127314 -0.346596 0.876863 0.0100967 0.480574 0.863853 0.0328398 0.502501 0.991736 0.0617985 0.11162 0.995405 -0.0915064 0.0271137 -0.500143 -0.00691389 -0.865817 -0.481901 -0.0224673 -0.875961 -0.862991 -0.00555255 0.505135 -0.870618 -0.000552163 0.491945 0.997076 -0.0582614 -0.0488261 0.998962 -0.0108312 0.0421536 0.897486 0.0448266 0.438594 0.989296 0.0949585 -0.110485 -0.473968 0.00387867 -0.880533 -0.736491 -0.175356 -0.653335 -0.855287 0.018745 0.517743 -0.470033 0.0152153 0.882514 0.970923 0.159241 -0.178554 0.670072 0.262585 -0.694266 0.639405 0.1677 0.750304 0.255364 -0.231095 -0.938802 -0.995042 -0.0610517 -0.0774887 0.0948156 0.0726645 0.992874 0.544694 -0.0450168 -0.837366 0.707256 0.0151377 -0.706815 0.702327 0.230021 -0.673632 0.676323 -0.215909 -0.704181 0.707067 -0.0147312 -0.707047 0.706199 0.0547333 -0.705914 0.550039 0.646389 -0.528671 0.622023 0.533783 -0.572795 0.706746 0.0405396 -0.706366 0.706048 -0.0553017 -0.706055 0.542909 -0.622498 -0.56369 0.568433 -0.613467 -0.548231 0.706199 -0.0547333 -0.705914 0.707263 -0.0151372 -0.706808 0.705591 -0.192609 -0.681887 0.678721 0.205158 -0.705153 0.707072 0.0147316 -0.707042 0.706054 0.0553018 -0.706049 0.532421 0.639983 -0.553956 0.70638 -0.040686 -0.706598 0.577162 -0.524129 -0.626209 0.706747 -0.0405395 -0.706364 0.639465 -0.486863 -0.594885 0.706395 0.0406869 -0.706583 0.583367 0.511277 -0.631148 0.70714 0 -0.707074 0.707138 0 -0.707076 0.707172 0 -0.707041 0.86158 0.0173017 0.507225 0.479435 0.0325775 0.876979 -0.499689 -0.0169518 -0.865974 -0.0487674 -0.0449203 -0.997754 -0.868509 0.00238067 0.495634 -0.999817 -0.0137972 0.013603 -0.0139469 0.0117252 0.999799 0.503148 -0.00277051 -0.864154 -0.875742 -0.0211145 -0.482245 -0.506743 0.00622879 0.86204 0.868545 0.00120519 -0.49571 0.99918 0.02417 0.0308641 0.999844 -0.013993 -0.00361494 0.00125925 0.00121481 -1.00001 0.501065 0.00125855 -0.865413 -1.00001 0.00121483 -0.00125927 -0.865413 0.001259 -0.501066 -0.00125876 0.00121433 1.00001 -0.501056 0.00124802 0.865419 0.866678 0.00118148 -0.498875 0.999888 0.0108402 0.0112367 0.865419 0.00124803 0.501056 -0.498875 0.00118178 -0.866678 -0.866678 0.0011818 0.498875 0.999937 -0.00839224 -0.00869926 0.498875 0.00118178 0.866678 0.499762 0.000625551 0.866087 -0.000217229 0.000639796 0.999991 0.000217242 0.000639833 -0.999991 0.500138 0.000652194 -0.865871 -0.999991 0.000639781 -0.000217224 -0.865871 0.000651598 -0.500137 -0.500137 0.000651643 0.865871 0.866089 0.000632524 -0.49976 0.999918 0.011457 0.00388997 0.865871 0.000651628 0.500137 -0.499762 0.000625551 -0.866087 -0.866087 0.000625536 0.499762 0.999933 -0.010163 -0.00345064 0.50088 0.008253 0.865455 0.00109366 0.00823818 0.999963 -0.00109366 0.00823819 -0.999963 0.498984 0.0082393 -0.866549 -0.999963 0.00823821 0.00109366 -0.866549 0.00823929 -0.498984 -0.498984 0.00823967 0.866549 0.865455 0.008253 -0.50088 0.999939 0.0106798 -0.00141779 0.866549 0.0082393 0.498984 -0.50088 0.00825299 -0.865455 -0.865455 0.008253 0.50088 0.99998 0.00579588 -0.000769433 -0.865536 0.00141868 0.500769 -0.999992 0.00139501 0.000937796 0.500852 0.00137019 0.865536 0.000937781 0.00139499 0.999992 -0.00093777 0.00139497 -0.999992 0.499223 0.00142694 -0.866476 -0.86648 0.00138909 -0.499134 -0.499217 0.00143711 0.86648 0.865536 0.00136998 -0.500851 0.999976 -0.0048515 0.00326142 0.86648 0.00143738 0.499217 -0.500852 0.00137047 -0.865536 0.999951 0.00764885 -0.00514194 -0.867344 -0.00661929 0.497482 -0.999978 -0.00661192 -0.00283861 0.497482 -0.00661899 0.867344 -0.00283863 -0.00661196 0.999978 0.00283861 -0.00661191 -0.999978 0.502404 -0.00661692 -0.864502 -0.864505 -0.00660427 -0.502399 -0.502399 -0.00660425 0.864505 0.867344 -0.0066188 -0.497482 0.999963 -0.00828871 0.00355849 0.864505 -0.00660427 0.502399 -0.497482 -0.00661935 -0.867344 0.999989 -0.00493792 0.00211994 -0.499902 0.00283147 -0.86605 0.000113525 0.00282877 -1 -0.86605 0.00283147 0.499902 -1 0.00282877 -0.000113525 0.499902 0.00283147 0.86605 -0.000113525 0.00282877 1 0.500099 0.00282883 -0.865936 -0.865936 0.00282676 -0.500098 -0.500098 0.00282676 0.865936 0.86605 0.00283147 -0.499902 0.999988 0.0056578 0.00022706 0.865936 0.00282676 0.500098 1 -0 0 </float_array>
          <technique_common>
            <accessor count="314" offset="0" source="#meshId0-bitangents-array" stride="3">
              <param name="X" type="float" />
              <param name="Y" type="float" />
              <param name="Z" type="float" />
            </accessor>
          </technique_common>
        </source>
        <source id="meshId0-tex0" name="meshId0-tex0">
          <float_array id="meshId0-tex0-array" count="628"> 0.042522 0.722014 0.070571 0.722014 0.070571 0.799113 0.042522 0.799113 0.042522 0.177726 0.070571 0.177726 0.070571 0.258282 0.042522 0.258282 0.042522 0.415479 0.070571 0.415479 0.070571 0.494569 0.042522 0.494569 0.042522 0.64339 0.070571 0.64339 0.042522 0.093316 0.070571 0.093316 0.042522 0.880315 0.070571 0.880315 0.070571 0.964433 0.042522 0.964433 0.042522 0.337111 0.070571 0.337111 0.042522 0.571431 0.070571 0.571431 0.042522 0.007386 0.070571 0.007386 0.009328 0.880315 0.009328 0.964433 0.009328 0.337111 0.009328 0.415479 0.009328 0.571431 0.009328 0.64339 0.009328 0.007386 0.009328 0.093316 0.009328 0.799113 0.009328 0.258282 0.009328 0.494569 0.009328 0.722014 0.009328 0.177726 0.727124 0.485597 0.701279 0.491603 0.701279 0.414423 0.726393 0.421151 0.812744 0.571218 0.806739 0.597067 0.739876 0.558464 0.758277 0.540064 0.813443 0.334103 0.806703 0.308981 0.883899 0.308977 0.877894 0.334825 0.963515 0.420447 0.989359 0.414441 0.989359 0.49162 0.964245 0.484892 0.877195 0.571941 0.883935 0.597063 0.758256 0.365966 0.73986 0.347582 0.932362 0.36598 0.950762 0.34758 0.932382 0.540078 0.950778 0.558461 0.888132 0.495831 0.802507 0.410213 0.845319 0.453022 0.157021 0.880315 0.157021 0.799113 0.157021 0.337111 0.157021 0.258282 0.157021 0.571431 0.157021 0.494569 0.157021 0.722014 0.157021 0.177726 0.157021 0.415479 0.157021 0.64339 0.157021 0.093316 0.157021 0.964433 0.157021 0.007386 0.166363 0.258282 0.166363 0.177726 0.166363 0.494569 0.166363 0.415479 0.166363 0.722014 0.166363 0.64339 0.166363 0.093316 0.166363 0.964433 0.166363 0.880315 0.166363 0.337111 0.166363 0.571431 0.166363 0.007386 0.166363 0.799113 0.17928 0.799113 0.17928 0.722014 0.17928 0.258282 0.17928 0.177726 0.17928 0.494569 0.17928 0.415479 0.17928 0.64339 0.17928 0.093316 0.17928 0.964433 0.17928 0.880315 0.17928 0.337111 0.17928 0.571431 0.17928 0.007386 0.240721 0.799113 0.240721 0.722014 0.240721 0.258282 0.240721 0.177726 0.240721 0.494569 0.240721 0.415479 0.240721 0.64339 0.240721 0.093316 0.240721 0.964433 0.240721 0.880315 0.240721 0.337111 0.240721 0.571431 0.240721 0.007386 0.250307 0.571431 0.250307 0.494569 0.250307 0.799113 0.250307 0.722014 0.250307 0.258282 0.250307 0.177726 0.250307 0.415479 0.250307 0.64339 0.250307 0.093316 0.250307 0.964433 0.250307 0.880315 0.250307 0.337111 0.250307 0.007386 0.257252 0.571431 0.257252 0.494569 0.257252 0.799113 0.257252 0.722014 0.257252 0.258282 0.257252 0.177726 0.257252 0.415479 0.257252 0.64339 0.257252 0.093316 0.257252 0.964433 0.257252 0.880315 0.257252 0.337111 0.257252 0.007386 0.303102 0.337111 0.303102 0.258282 0.303102 0.571431 0.303102 0.494569 0.303102 0.799113 0.303102 0.722014 0.303102 0.177726 0.303102 0.415479 0.303102 0.64339 0.303102 0.093316 0.303102 0.964433 0.303102 0.880315 0.303102 0.007386 0.660318 0.258282 0.634467 0.258282 0.634467 0.177726 0.660318 0.177726 0.660318 0.799113 0.634467 0.799113 0.634467 0.722014 0.660318 0.722014 0.660318 0.571431 0.634467 0.571431 0.634467 0.494569 0.660318 0.494569 0.660318 0.337111 0.634467 0.337111 0.660318 0.880315 0.634467 0.880315 0.660318 0.093316 0.634467 0.093316 0.634467 0.007386 0.660318 0.007386 0.660318 0.64339 0.634467 0.64339 0.660318 0.415479 0.634467 0.415479 0.660318 0.964433 0.634467 0.964433 0.690426 0.093316 0.690426 0.007386 0.690426 0.64339 0.690426 0.571431 0.690426 0.415479 0.690426 0.337111 0.690426 0.964433 0.690426 0.880315 0.690426 0.177726 0.690426 0.722014 0.690426 0.494569 0.690426 0.258282 0.690426 0.799113 0.727124 0.186365 0.701279 0.192371 0.701279 0.115192 0.726393 0.12192 0.812744 0.271987 0.806739 0.297835 0.739876 0.259232 0.758277 0.240832 0.813443 0.034871 0.806703 0.009749 0.883899 0.009745 0.877894 0.035593 0.963515 0.121215 0.989359 0.115209 0.989359 0.192389 0.964245 0.185661 0.877195 0.272709 0.883935 0.297832 0.758256 0.066734 0.73986 0.048351 0.932362 0.066748 0.950762 0.048348 0.932382 0.240846 0.950778 0.25923 0.888132 0.196599 0.802507 0.110981 0.845319 0.15379 0.546477 0.093316 0.546477 0.177726 0.546477 0.64339 0.546477 0.722014 0.546477 0.415479 0.546477 0.494569 0.546477 0.258282 0.546477 0.799113 0.546477 0.571431 0.546477 0.337111 0.546477 0.880315 0.546477 0.007386 0.546477 0.964433 0.53768 0.722014 0.53768 0.799113 0.53768 0.494569 0.53768 0.571431 0.53768 0.258282 0.53768 0.337111 0.53768 0.880315 0.53768 0.007386 0.53768 0.093316 0.53768 0.64339 0.53768 0.415479 0.53768 0.964433 0.53768 0.177726 0.525118 0.177726 0.525118 0.258282 0.525118 0.722014 0.525118 0.799113 0.525118 0.494569 0.525118 0.571431 0.525118 0.337111 0.525118 0.880315 0.525118 0.007386 0.525118 0.093316 0.525118 0.64339 0.525118 0.415479 0.525118 0.964433 0.462116 0.177726 0.462116 0.258282 0.462116 0.722014 0.462116 0.799113 0.462116 0.494569 0.462116 0.571431 0.462116 0.337111 0.462116 0.880315 0.462116 0.007386 0.462116 0.093316 0.462116 0.64339 0.462116 0.415479 0.462116 0.964433 0.452518 0.415479 0.452518 0.494569 0.452518 0.177726 0.452518 0.258282 0.452518 0.722014 0.452518 0.799113 0.452518 0.571431 0.452518 0.337111 0.452518 0.880315 0.452518 0.007386 0.452518 0.093316 0.452518 0.64339 0.452518 0.964433 0.444874 0.415479 0.444874 0.494569 0.444874 0.177726 0.444874 0.258282 0.444874 0.722014 0.444874 0.799113 0.444874 0.571431 0.444874 0.337111 0.444874 0.880315 0.444874 0.007386 0.444874 0.093316 0.444874 0.64339 0.444874 0.964433 0.401272 0.64339 0.401272 0.722014 0.401272 0.415479 0.401272 0.494569 0.401272 0.177726 0.401272 0.258282 0.401272 0.799113 0.401272 0.571431 0.401272 0.337111 0.401272 0.880315 0.401272 0.007386 0.401272 0.093316 0.401272 0.964433 </float_array>
          <technique_common>
            <accessor count="314" offset="0" source="#meshId0-tex0-array" stride="2">
              <param name="S" type="float" />
              <param name="T" type="float" />
            </accessor>
          </technique_common>
        </source>
        <vertices id="meshId0-vertices">
          <input semantic="POSITION" source="#meshId0-positions" />
          <input semantic="NORMAL" source="#meshId0-normals" />
          <input semantic="TANGENT" source="#meshId0-tangents" />
          <input semantic="BINORMAL" source="#meshId0-bitangents" />
          <input semantic="TEXCOORD" source="#meshId0-tex0"  />
        </vertices>
        <polylist count="536" material="defaultMaterial">
          <input offset="0" semantic="VERTEX" source="#meshId0-vertices" />
          <vcount>3 3 3 3 3 3 3 3 3 3 3 3 3 3 3 3 3 3 3 3 3 3 3 3 3 3 3 3 3 3 3 3 3 3 3 3 3 3 3 3 3 3 3 3 3 3 3 3 3 3 3 3 3 3 3 3 3 3 3 3 3 3 3 3 3 3 3 3 3 3 3 3 3 3 3 3 3 3 3 3 3 3 3 3 3 3 3 3 3 3 3 3 3 3 3 3 3 3 3 3 3 3 3 3 3 3 3 3 3 3 3 3 3 3 3 3 3 3 3 3 3 3 3 3 3 3 3 3 3 3 3 3 3 3 3 3 3 3 3 3 3 3 3 3 3 3 3 3 3 3 3 3 3 3 3 3 3 3 3 3 3 3 3 3 3 3 3 3 3 3 3 3 3 3 3 3 3 3 3 3 3 3 3 3 3 3 3 3 3 3 3 3 3 3 3 3 3 3 3 3 3 3 3 3 3 3 3 3 3 3 3 3 3 3 3 3 3 3 3 3 3 3 3 3 3 3 3 3 3 3 3 3 3 3 3 3 3 3 3 3 3 3 3 3 3 3 3 3 3 3 3 3 3 3 3 3 3 3 3 3 3 3 3 3 3 3 3 3 3 3 3 3 3 3 3 3 3 3 3 3 3 3 3 3 3 3 3 3 3 3 3 3 3 3 3 3 3 3 3 3 3 3 3 3 3 3 3 3 3 3 3 3 3 3 3 3 3 3 3 3 3 3 3 3 3 3 3 3 3 3 3 3 3 3 3 3 3 3 3 3 3 3 3 3 3 3 3 3 3 3 3 3 3 3 3 3 3 3 3 3 3 3 3 3 3 3 3 3 3 3 3 3 3 3 3 3 3 3 3 3 3 3 3 3 3 3 3 3 3 3 3 3 3 3 3 3 3 3 3 3 3 3 3 3 3 3 3 3 3 3 3 3 3 3 3 3 3 3 3 3 3 3 3 3 3 3 3 3 3 3 3 3 3 3 3 3 3 3 3 3 3 3 3 3 3 3 3 3 3 3 3 3 3 3 3 3 3 3 3 3 3 3 3 3 3 3 3 3 3 3 3 3 3 3 3 3 3 3 3 3 3 3 3 3 3 3 3 3 3 3 3 3 3 3 3 3 3 3 3 3 3 3 3 3 3 3 3 3 3 3 3 3 3 3 3 3 3 3 3 3 3 3 3 3 3 3 3 3 3 3 3 3 3 3 3 3 </vcount>
          <p>0 1 2 2 3 0 4 5 6 6 7 4 8 9 10 10 11 8 12 13 1 1 0 12 14 15 5 5 4 14 16 17 18 18 19 16 20 21 9 9 8 20 22 23 13 13 12 22 24 25 15 15 14 24 3 2 17 17 16 3 7 6 21 21 20 7 11 10 23 23 22 11 26 16 19 19 27 26 28 20 8 8 29 28 30 22 12 12 31 30 32 24 14 14 33 32 34 3 16 16 26 34 35 7 20 20 28 35 36 11 22 22 30 36 37 0 3 3 34 37 38 4 7 7 35 38 29 8 11 11 36 29 31 12 0 0 37 31 33 14 4 4 38 33 39 40 41 41 42 39 43 44 45 45 46 43 47 48 49 49 50 47 51 52 53 53 54 51 46 45 40 40 39 46 55 56 44 44 43 55 57 58 48 48 47 57 59 60 52 52 51 59 61 62 56 56 55 61 42 41 58 58 57 42 50 49 60 60 59 50 54 53 62 62 61 54 54 61 63 63 51 54 55 43 63 63 61 55 42 57 64 64 39 42 47 50 64 64 57 47 65 59 51 51 63 65 50 59 65 65 64 50 65 46 39 39 64 65 43 46 65 65 63 43 66 17 2 2 67 66 68 21 6 6 69 68 70 23 10 10 71 70 67 2 1 1 72 67 69 6 5 5 73 69 71 10 9 9 74 71 72 1 13 13 75 72 73 5 15 15 76 73 77 18 17 17 66 77 74 9 21 21 68 74 75 13 23 23 70 75 76 15 25 25 78 76 79 69 73 73 80 79 81 71 74 74 82 81 83 72 75 75 84 83 80 73 76 76 85 80 86 77 66 66 87 86 82 74 68 68 88 82 84 75 70 70 89 84 85 76 78 78 90 85 87 66 67 67 91 87 88 68 69 69 79 88 89 70 71 71 81 89 91 67 72 72 83 91 92 91 83 83 93 92 94 79 80 80 95 94 96 81 82 82 97 96 93 83 84 84 98 93 95 80 85 85 99 95 100 86 87 87 101 100 97 82 88 88 102 97 98 84 89 89 103 98 99 85 90 90 104 99 101 87 91 91 92 101 102 88 79 79 94 102 103 89 81 81 96 103 105 92 93 93 106 105 107 94 95 95 108 107 109 96 97 97 110 109 106 93 98 98 111 106 108 95 99 99 112 108 113 100 101 101 114 113 110 97 102 102 115 110 111 98 103 103 116 111 112 99 104 104 117 112 114 101 92 92 105 114 115 102 94 94 107 115 116 103 96 96 109 116 118 116 109 109 119 118 120 105 106 106 121 120 122 107 108 108 123 122 119 109 110 110 124 119 121 106 111 111 125 121 123 108 112 112 126 123 127 113 114 114 128 127 124 110 115 115 129 124 125 111 116 116 118 125 126 112 117 117 130 126 128 114 105 105 120 128 129 115 107 107 122 129 131 118 119 119 132 131 133 120 121 121 134 133 135 122 123 123 136 135 132 119 124 124 137 132 134 121 125 125 138 134 136 123 126 126 139 136 140 127 128 128 141 140 137 124 129 129 142 137 138 125 118 118 131 138 139 126 130 130 143 139 141 128 120 120 133 141 142 129 122 122 135 142 144 142 135 135 145 144 146 131 132 132 147 146 148 133 134 134 149 148 145 135 136 136 150 145 147 132 137 137 151 147 149 134 138 138 152 149 150 136 139 139 153 150 154 140 141 141 155 154 151 137 142 142 144 151 152 138 131 131 146 152 153 139 143 143 156 153 155 141 133 133 148 155 157 158 159 159 160 157 161 162 163 163 164 161 165 166 167 167 168 165 169 170 158 158 157 169 171 172 162 162 161 171 173 174 175 175 176 173 177 178 166 166 165 177 179 180 170 170 169 179 181 182 172 172 171 181 160 159 174 174 173 160 164 163 178 178 177 164 168 167 180 180 179 168 183 173 176 176 184 183 185 177 165 165 186 185 187 179 169 169 188 187 189 181 171 171 190 189 191 160 173 173 183 191 192 164 177 177 185 192 193 168 179 179 187 193 194 157 160 160 191 194 195 161 164 164 192 195 186 165 168 168 193 186 188 169 157 157 194 188 190 171 161 161 195 190 196 197 198 198 199 196 200 201 202 202 203 200 204 205 206 206 207 204 208 209 210 210 211 208 203 202 197 197 196 203 212 213 201 201 200 212 214 215 205 205 204 214 216 217 209 209 208 216 218 219 213 213 212 218 199 198 215 215 214 199 207 206 217 217 216 207 211 210 219 219 218 211 211 218 220 220 208 211 212 200 220 220 218 212 199 214 221 221 196 199 204 207 221 221 214 204 222 216 208 208 220 222 207 216 222 222 221 207 222 203 196 196 221 222 200 203 222 222 220 200 223 174 159 159 224 223 225 178 163 163 226 225 227 180 167 167 228 227 224 159 158 158 229 224 226 163 162 162 230 226 228 167 166 166 231 228 229 158 170 170 232 229 230 162 172 172 233 230 234 175 174 174 223 234 231 166 178 178 225 231 232 170 180 180 227 232 233 172 182 182 235 233 236 226 230 230 237 236 238 228 231 231 239 238 240 229 232 232 241 240 237 230 233 233 242 237 243 234 223 223 244 243 239 231 225 225 245 239 241 232 227 227 246 241 242 233 235 235 247 242 244 223 224 224 248 244 245 225 226 226 236 245 246 227 228 228 238 246 248 224 229 229 240 248 249 248 240 240 250 249 251 236 237 237 252 251 253 238 239 239 254 253 250 240 241 241 255 250 252 237 242 242 256 252 257 243 244 244 258 257 254 239 245 245 259 254 255 241 246 246 260 255 256 242 247 247 261 256 258 244 248 248 249 258 259 245 236 236 251 259 260 246 238 238 253 260 262 249 250 250 263 262 264 251 252 252 265 264 266 253 254 254 267 266 263 250 255 255 268 263 265 252 256 256 269 265 270 257 258 258 271 270 267 254 259 259 272 267 268 255 260 260 273 268 269 256 261 261 274 269 271 258 249 249 262 271 272 259 251 251 264 272 273 260 253 253 266 273 275 273 266 266 276 275 277 262 263 263 278 277 279 264 265 265 280 279 276 266 267 267 281 276 278 263 268 268 282 278 280 265 269 269 283 280 284 270 271 271 285 284 281 267 272 272 286 281 282 268 273 273 275 282 283 269 274 274 287 283 285 271 262 262 277 285 286 272 264 264 279 286 288 275 276 276 289 288 290 277 278 278 291 290 292 279 280 280 293 292 289 276 281 281 294 289 291 278 282 282 295 291 293 280 283 283 296 293 297 284 285 285 298 297 294 281 286 286 299 294 295 282 275 275 288 295 296 283 287 287 300 296 298 285 277 277 290 298 299 286 279 279 292 299 301 299 292 292 302 301 303 288 289 289 304 303 305 290 291 291 306 305 302 292 293 293 307 302 304 289 294 294 308 304 306 291 295 295 309 306 307 293 296 296 310 307 311 297 298 298 312 311 308 294 299 299 301 308 309 295 288 288 303 309 310 296 300 300 313 310 312 298 290 290 305 312 156 311 312 312 153 156 153 312 305 305 150 153 150 305 306 306 145 150 145 306 309 309 144 145 144 309 303 303 151 144 151 303 304 304 147 151 147 304 308 308 146 147 146 308 301 301 152 146 152 301 302 302 149 152 149 302 307 307 148 149 148 307 310 310 155 148 155 310 313 313 154 155 </p>
        </polylist>
      </mesh>
    </geometry>
  </library_geometries>
  <library_visual_scenes>
    <visual_scene id="Sod-low-poly.obj" name="Sod-low-poly.obj">
      <node id="Circle" name="Circle">
        <matrix>1 0 0 0 0 1 0 0 0 0 1 0 0 0 0 1</matrix>
        <instance_geometry url="#meshId0">
          <bind_material>
            <technique_common>
              <instance_material symbol="defaultMaterial" target="#1001" />
            </technique_common>
          </bind_material>
        </instance_geometry>
      </node>
    </visual_scene>
  </library_visual_scenes>
  <scene>
    <instance_visual_scene url="#Sod-low-poly.obj" />
  </scene>
</COLLADA>
